0 info it worked if it ends with ok
1 verbose cli [ '/home/ubuntu/.nvm/v0.10.33/bin/node',
1 verbose cli   '/home/ubuntu/.nvm/v0.10.33/bin/npm',
1 verbose cli   'install',
1 verbose cli   '-g',
1 verbose cli   'em-meteor' ]
2 info using npm@1.4.28
3 info using node@v0.10.33
4 verbose cache add [ 'em-meteor', null ]
5 verbose cache add name=undefined spec="em-meteor" args=["em-meteor",null]
6 verbose parsed url { protocol: null,
6 verbose parsed url   slashes: null,
6 verbose parsed url   auth: null,
6 verbose parsed url   host: null,
6 verbose parsed url   port: null,
6 verbose parsed url   hostname: null,
6 verbose parsed url   hash: null,
6 verbose parsed url   search: null,
6 verbose parsed url   query: null,
6 verbose parsed url   pathname: 'em-meteor',
6 verbose parsed url   path: 'em-meteor',
6 verbose parsed url   href: 'em-meteor' }
7 silly lockFile 9448bdd1-em-meteor em-meteor
8 verbose lock em-meteor /home/ubuntu/.npm/9448bdd1-em-meteor.lock
9 silly lockFile 9448bdd1-em-meteor em-meteor
10 silly lockFile 9448bdd1-em-meteor em-meteor
11 verbose addNamed [ 'em-meteor', '' ]
12 verbose addNamed [ null, '*' ]
13 silly lockFile ad673fd6-em-meteor em-meteor@
14 verbose lock em-meteor@ /home/ubuntu/.npm/ad673fd6-em-meteor.lock
15 silly addNameRange { name: 'em-meteor', range: '*', hasData: false }
16 verbose request where is /em-meteor
17 verbose request registry https://registry.npmjs.org/
18 verbose request id a2851d8aa68b6e37
19 verbose url raw /em-meteor
20 verbose url resolving [ 'https://registry.npmjs.org/', './em-meteor' ]
21 verbose url resolved https://registry.npmjs.org/em-meteor
22 verbose request where is https://registry.npmjs.org/em-meteor
23 info trying registry request attempt 1 at 22:14:37
24 http GET https://registry.npmjs.org/em-meteor
25 http 404 https://registry.npmjs.org/em-meteor
26 verbose headers { date: 'Tue, 20 Jan 2015 22:14:37 GMT',
26 verbose headers   server: 'CouchDB/1.5.0 (Erlang OTP/R16B03)',
26 verbose headers   'content-type': 'application/json',
26 verbose headers   'cache-control': 'max-age=0',
26 verbose headers   'content-length': '52',
26 verbose headers   'accept-ranges': 'bytes',
26 verbose headers   via: '1.1 varnish',
26 verbose headers   age: '0',
26 verbose headers   'x-served-by': 'cache-jfk1029-JFK',
26 verbose headers   'x-cache': 'MISS',
26 verbose headers   'x-cache-hits': '0',
26 verbose headers   'x-timer': 'S1421792077.955047,VS0,VE23',
26 verbose headers   'keep-alive': 'timeout=10, max=50',
26 verbose headers   connection: 'Keep-Alive' }
27 silly registry.get cb [ 404,
27 silly registry.get   { date: 'Tue, 20 Jan 2015 22:14:37 GMT',
27 silly registry.get     server: 'CouchDB/1.5.0 (Erlang OTP/R16B03)',
27 silly registry.get     'content-type': 'application/json',
27 silly registry.get     'cache-control': 'max-age=0',
27 silly registry.get     'content-length': '52',
27 silly registry.get     'accept-ranges': 'bytes',
27 silly registry.get     via: '1.1 varnish',
27 silly registry.get     age: '0',
27 silly registry.get     'x-served-by': 'cache-jfk1029-JFK',
27 silly registry.get     'x-cache': 'MISS',
27 silly registry.get     'x-cache-hits': '0',
27 silly registry.get     'x-timer': 'S1421792077.955047,VS0,VE23',
27 silly registry.get     'keep-alive': 'timeout=10, max=50',
27 silly registry.get     connection: 'Keep-Alive' } ]
28 silly lockFile ad673fd6-em-meteor em-meteor@
29 silly lockFile ad673fd6-em-meteor em-meteor@
30 error 404 404 Not Found: em-meteor
30 error 404
30 error 404 'em-meteor' is not in the npm registry.
30 error 404 You should bug the author to publish it
30 error 404
30 error 404 Note that you can also install from a
30 error 404 tarball, folder, or http url, or git url.
31 error System Linux 3.14.13-c9
32 error command "/home/ubuntu/.nvm/v0.10.33/bin/node" "/home/ubuntu/.nvm/v0.10.33/bin/npm" "install" "-g" "em-meteor"
33 error cwd /home/ubuntu/workspace/exercise1
34 error node -v v0.10.33
35 error npm -v 1.4.28
36 error code E404
37 verbose exit [ 1, true ]
